%YAML 1.1
%TAG !u! tag:unity3d.com,2011:
--- !u!114 &11400000
MonoBehaviour:
  m_ObjectHideFlags: 0
  m_CorrespondingSourceObject: {fileID: 0}
  m_PrefabInstance: {fileID: 0}
  m_PrefabAsset: {fileID: 0}
  m_GameObject: {fileID: 0}
  m_Enabled: 1
  m_EditorHideFlags: 0
  m_Script: {fileID: 11500000, guid: 3acd6fe57257048db802c1c4c2b75248, type: 3}
  m_Name: Forward_ModWorld
  m_EditorClassIdentifier: 
  shaderName: Forward_ModWorld
  shaderReference: {fileID: 4800000, guid: 9c35d03ac80f47441990027f25f3ae80, type: 3}
  shaderTemplate: uRaymarching/Forward/Standard
  variables:
  - key: Name
    value: Forward_ModWorld
  - key: Culling
    value: Off
  - key: ObjectShape
    value: NONE
  - key: RaymarchingShaderDirectory
    value: Assets\uRaymarching\Shaders\Include
  - key: RenderType
    value: Opaque
  - key: RenderQueue
    value: Geometry
  conditions:
  - key: ShadowCaster
    value: 1
  - key: WorldSpace
    value: 1
  - key: FollowObjectScale
    value: 0
  - key: UseRaymarchingDepth
    value: 1
  - key: CameraInsideObject
    value: 1
  - key: FallbackToDiffuse
    value: 1
  - key: Blend
    value: 0
  - key: UseCameraDepthTexture
    value: 0
  - key: SphericalHarmonicsPerPixel
    value: 1
  - key: ForwardAdd
    value: 1
  - key: FallbackToStandardShader
    value: 0
  - key: FullScreen
    value: 0
  - key: DisableViewCulling
    value: 0
  - key: UseGrabPass
    value: 0
  blocks:
  - key: Properties
    value: '[Header(Additional Parameters)]

      _Grid("Grid", 2D) = "" {}'
    folded: 1
  - key: DistanceFunction
    value: "inline float3 RandomOffset(float seed, float maxOffset) {\n    float random1
      = -1 + 2 * Rand(float2(seed, 1242134));\n    float random2 = -1 + 2 * Rand(float2(seed,
      421432));\n    return float3(random1 * maxOffset, random2 * maxOffset, 0);\n\n}\n\ninline
      float RandomSquare(float seed, float3 pos, float2 size) {\n\n    return Box(pos,
      float3(size.xy, 1));\n}\n\ninline float TeatroNacional(float3 pos)\n{\n  float2
      repetition = float2(3.5, 3.5);\n  float3 posRepeat = float3(Repeat(pos.xy, repetition),
      pos.z);\n  float seed = Rand(floor(pos.xy / repetition));\n\n  // Teatro nacional\n
      \ float tamanhoMaior = 1.;\n  float tamanhoMedio = 2./3.;\n  float tamanhoMenor
      = 1./3.;\n  float offsetBase = 2 * tamanhoMenor;\n  float h = 1;\n  if(seed
      < 0.5)\n  {\n    // 1 cubo\n    float size = lerp(tamanhoMedio, tamanhoMaior,
      step(0.25, seed));\n    return RandomSquare(\n      seed,\n      posRepeat +
      RandomOffset(seed, offsetBase),\n      float2(size, size)\n      );\n  } else
      { // 2 ou 3 cubos\n    {\n      float random = Rand(float2(seed, 100));\n      float
      randomAngle = floor(random * 4) * PI/2.;\n      posRepeat = Rotate(posRepeat,
      randomAngle, float3(0, 0, 1));\n    }\n\n    float cubinho = RandomSquare(\n
      \     seed,\n      posRepeat + RandomOffset(seed, offsetBase) +\n      float3(-2
      * tamanhoMenor, -2 * tamanhoMenor, 0),\n      float2(tamanhoMenor, tamanhoMenor));\n\n
      \   // 2 cubos\n    float tamanhoEsticado = lerp(tamanhoMedio, tamanhoMaior,
      step(0.75, seed));\n    float cuboEsticado = RandomSquare(\n        Rand(float2(seed,
      5)),\n        posRepeat + RandomOffset(seed, offsetBase) +\n        float3(2
      * tamanhoMenor, - (tamanhoMaior - tamanhoEsticado), 0),\n        float2(tamanhoMenor,
      tamanhoEsticado)\n      );\n\n    // Terceiro cubo\n    if(seed < 0.75) {\n
      \     float cubinho2 = RandomSquare(\n        seed,\n        posRepeat + RandomOffset(seed,
      offsetBase) +\n        float3(-2 * tamanhoMenor, 2 * tamanhoMenor, 0),\n        float2(tamanhoMenor,
      tamanhoMenor));\n\n        cubinho = min(cubinho, cubinho2);\n    }\n\n    cubinho
      = min(cubinho, cuboEsticado);\n    return cubinho;\n  }\n}\n\ninline float DistanceFunction(float3
      pos) {\n  pos = Rotate(pos, PI/15, float3(1, 0, 0));\n  float plane = Plane(pos
      - float3(0, 0, 1), float3(0, 0, -1));\n  float teatro = TeatroNacional(pos);\n
      \ //return teatro;\n  return min(teatro, plane);\n}"
    folded: 1
  - key: PostEffect
    value: "sampler2D _Grid;\nfloat4 _Grid_ST;\n\ninline void PostEffect(RaymarchInfo
      ray, inout PostEffectOutput o)\n{\n    //o.Emission += tex2D(_Grid, ray.endPos.xy
      * _Grid_ST.xy + _Grid_ST.zw);\n    float ao = 1.0 - 1.0 * ray.loop / ray.maxLoop;\n
      \   o.Occlusion *= ao;\n    o.Emission *= ao;\n}"
    folded: 1
  constants: {fileID: 11400000, guid: 4df15a420345e4af98645ddd9620aa5b, type: 2}
  basicFolded: 1
  conditionsFolded: 1
  variablesFolded: 1
  materialsFolded: 1
  constantsFolded: 0
