%YAML 1.1
%TAG !u! tag:unity3d.com,2011:
--- !u!114 &11400000
MonoBehaviour:
  m_ObjectHideFlags: 0
  m_CorrespondingSourceObject: {fileID: 0}
  m_PrefabInstance: {fileID: 0}
  m_PrefabAsset: {fileID: 0}
  m_GameObject: {fileID: 0}
  m_Enabled: 1
  m_EditorHideFlags: 0
  m_Script: {fileID: 11500000, guid: 3acd6fe57257048db802c1c4c2b75248, type: 3}
  m_Name: Deferred_ModWorld
  m_EditorClassIdentifier: 
  shaderName: Deffered_ModWorld
  shaderReference: {fileID: 4800000, guid: 666122ecb6f049244b34a1740b3d67b4, type: 3}
  shaderTemplate: uRaymarching/Deferred/Standard
  variables:
  - key: Name
    value: Deffered_ModWorld
  - key: RaymarchingShaderDirectory
    value: Assets\uRaymarching\Shaders\Include
  - key: Culling
    value: Back
  - key: ObjectShape
    value: NONE
  - key: RenderType
    value: Opaque
  - key: RenderQueue
    value: Geometry
  conditions:
  - key: ShadowCaster
    value: 0
  - key: UseObjectScale
    value: 0
  - key: DoNotOutputDepth
    value: 0
  - key: FallbackToStandardShader
    value: 0
  - key: FallbackToDiffuse
    value: 0
  - key: WorldSpace
    value: 1
  - key: FollowObjectScale
    value: 0
  - key: CameraInsideObject
    value: 1
  - key: SphericalHarmonicsPerPixel
    value: 1
  - key: UseRaymarchingDepth
    value: 1
  - key: FullScreen
    value: 1
  - key: Blend
    value: 0
  - key: UseCameraDepthTexture
    value: 1
  - key: ForwardAdd
    value: 1
  blocks:
  - key: Properties
    value: '[Header(Additional Parameters)]

      _Grid("Grid", 2D) = "" {}'
    folded: 1
  - key: DistanceFunction
    value: "inline float DistanceFunction(float3 pos)\n{\n    float r = abs(sin(2
      * PI * _Time.y / 2.0));\n    float d1 = RoundBox(Repeat(pos, float3(6, 6, 6)),
      1 - r, r);\n    float d2 = Sphere(pos, 3.0);\n    float d3 = Plane(pos - float3(0,
      -3, 0), float3(0, 1, 0));\n    return SmoothMin(SmoothMin(d1, d2, 1.0), d3,
      1.0);\n}"
    folded: 1
  - key: PostEffect
    value: "sampler2D _Grid;\nfloat4 _Grid_ST;\n\ninline void PostEffect(RaymarchInfo
      ray, inout PostEffectOutput o)\n{\n    o.Emission += tex2D(_Grid, ray.endPos.xy
      * _Grid_ST.xy + _Grid_ST.zw);\n    float ao = 1.0 - 1.0 * ray.loop / ray.maxLoop;\n
      \   o.Occlusion *= ao;\n    o.Emission *= ao;\n}"
    folded: 1
  constants: {fileID: 11400000, guid: 4df15a420345e4af98645ddd9620aa5b, type: 2}
  basicFolded: 1
  conditionsFolded: 1
  variablesFolded: 1
  materialsFolded: 1
  constantsFolded: 0
