%YAML 1.1
%TAG !u! tag:unity3d.com,2011:
--- !u!21 &2100000
Material:
  serializedVersion: 6
  m_ObjectHideFlags: 0
  m_CorrespondingSourceObject: {fileID: 0}
  m_PrefabInstance: {fileID: 0}
  m_PrefabAsset: {fileID: 0}
  m_Name: EfeitoLapis
  m_Shader: {fileID: 4800000, guid: 1a615f33578a817429273a62e41409e2, type: 3}
  m_ShaderKeywords: 
  m_LightmapFlags: 4
  m_EnableInstancingVariants: 0
  m_DoubleSidedGI: 0
  m_CustomRenderQueue: -1
  stringTagMap: {}
  disabledShaderPasses: []
  m_SavedProperties:
    serializedVersion: 3
    m_TexEnvs:
    - _LapisTex:
        m_Texture: {fileID: 2800000, guid: 084b4c192efe09b4986ab920bd49412c, type: 3}
        m_Scale: {x: 1, y: 1}
        m_Offset: {x: 0, y: 0}
    - _MainTex:
        m_Texture: {fileID: 2800000, guid: 084b4c192efe09b4986ab920bd49412c, type: 3}
        m_Scale: {x: 1, y: 1}
        m_Offset: {x: 0, y: 0}
    m_Floats:
    - color0: 0
    - color1: 0.04
    - color2: 0.11
    - color3: 0.21
    - color4: 0.25
    - color5: 0.35
    - color6: 0.41
    - color7: 0.84
    - inv: 0
    m_Colors: []
